PhantomPurgeR: Vignette
…
Outcome counts datatable

The datatable is ordered in descending order of qr, the posterior probability of incorrectly assigning s as the inferred sample of origin. n is the number of CUGs with the corresponding outcome and p_outcome is the observed marginal probability of that outcome.

out$outcome_counts

## # A tibble: 187,567 x 17
##    outcome     s    qr     r     n     o    FP    FN     TP     TN   FPm   FNm
##    <chr>   <int> <dbl> <int> <int> <dbl> <dbl> <dbl>  <dbl>  <dbl> <dbl> <dbl>
##  1 0,1,0,     5 0.563     3     6 1.    86289  7546 5.36e7 4.37e6     0     0
##  2 1,1,0,     5 0.556     3     2 1.000 86286  7548 5.36e7 4.37e6     3     2
##  3 0,0,1,     4 0.549     2   290 1.000 86285  7549 5.36e7 4.37e6     4     3
##  4 0,1,2,     4 0.543     6     1 1.000 86125  7680 5.36e7 4.37e6   164   134
##  5 1,1,1,     2 0.540     5     1 1.000 86125  7680 5.36e7 4.37e6   164   134
##  6 1,1,0,     2 0.535     3     1 1.000 86124  7681 5.36e7 4.37e6   165   135
##  7 0,0,2,     4 0.527     5     1 1.000 86124  7681 5.36e7 4.37e6   165   135
##  8 1,1,2,     4 0.513     6     1 1.000 86123  7682 5.36e7 4.37e6   166   136
##  9 1,0,0,     7 0.512     3     3 1.000 86123  7682 5.36e7 4.37e6   166   136
## 10 2,0,0,     1 0.499     5     1 1.000 86121  7684 5.36e7 4.37e6   168   138
## #  with 187,557 more rows, and 5 more variables: tor <dbl>, retain <lgl>,
## #   qs <dbl>, FPp <dbl>, p_outcome <dbl>
…
